Convolution/transcript
# Compile of PE.v was successful.
# Compile of Convolution.v failed with 1 errors.
# Error opening D:/Code/FPGADesign/Convolution/(vlog-13038) D:/Code/FPGADesign/Convolution/modules/Convolution.v
# Path name 'D:/Code/FPGADesign/Convolution/(vlog-13038) D:/Code/FPGADesign/Convolution/modules/Convolution.v' doesn't exist.
# Compile of PE.v was successful.
# Compile of Convolution.v was successful.
# Compile of Convolution_tb.v was successful.
# 3 compiles, 0 failed with no errors.
vsim -gui work.Convolution_tb
# vsim -gui work.Convolution_tb 
# Start time: 08:54:21 on Dec 03,2024
# Loading work.Convolution_tb
# Loading work.Convolution
# Loading work.PE
add wave *
run
# Time: 0 | x1: 00, x2: 00, x3: 00 | y1: xx, y2: xx, y3: xx
# Time: 5000 | x1: 00, x2: 00, x3: 00 | y1: 00, y2: 00, y3: 00
# Time: 20000 | x1: 0a, x2: 14, x3: 1e | y1: 00, y2: 00, y3: 00
# Time: 45000 | x1: 0a, x2: 14, x3: 1e | y1: 00, y2: 28, y3: 00
# Time: 55000 | x1: 0a, x2: 14, x3: 1e | y1: 00, y2: 28, y3: 64
# Time: 80000 | x1: 01, x2: 02, x3: 03 | y1: 00, y2: 28, y3: 64
# Time: 140000 | x1: 04, x2: 05, x3: 06 | y1: 00, y2: 28, y3: 64
# ** Note: $stop    : D:/Code/FPGADesign/Convolution/test_benches/Convolution_tb.v(63)
#    Time: 190 ns  Iteration: 0  Instance: /Convolution_tb
# Break in Module Convolution_tb at D:/Code/FPGADesign/Convolution/test_benches/Convolution_tb.v line 63
# Compile of PE.v was successful.
# Compile of Convolution.v was successful.
# Compile of Convolution_tb.v was successful.
# 3 compiles, 0 failed with no errors.
vsim -gui work.Convolution_tb
# End time: 08:57:46 on Dec 03,2024, Elapsed time: 0:03:25
# Errors: 0, Warnings: 10
# vsim -gui work.Convolution_tb 
# Start time: 08:57:46 on Dec 03,2024
# Loading work.Convolution_tb
# Loading work.Convolution
# Loading work.PE
# Compile of PE.v was successful.
# Compile of Convolution.v was successful.
# Compile of Convolution_tb.v was successful.
# 3 compiles, 0 failed with no errors.
vsim -gui work.Convolution_tb
# End time: 08:57:53 on Dec 03,2024, Elapsed time: 0:00:07
# Errors: 0, Warnings: 2
# vsim -gui work.Convolution_tb 
# Start time: 08:57:53 on Dec 03,2024
# Loading work.Convolution_tb
# Loading work.Convolution
# Loading work.PE
add wave *
run
# Time: 0 | x1: 00, x2: 00, x3: 00 | y1: xx, y2: xx, y3: xx
# Time: 5000 | x1: 00, x2: 00, x3: 00 | y1: 00, y2: 00, y3: 00
# Time: 10000 | x1: 0a, x2: 14, x3: 1e | y1: 00, y2: 00, y3: 00
# Time: 45000 | x1: 0a, x2: 14, x3: 1e | y1: 3c, y2: 00, y3: 00
# Time: 55000 | x1: 0a, x2: 14, x3: 1e | y1: 3c, y2: 6e, y3: 00
# Time: 65000 | x1: 0a, x2: 14, x3: 1e | y1: 3c, y2: 6e, y3: 50
# Time: 70000 | x1: 01, x2: 02, x3: 03 | y1: 3c, y2: 6e, y3: 50
# Time: 130000 | x1: 04, x2: 05, x3: 06 | y1: 3c, y2: 6e, y3: 50
# ** Note: $stop    : D:/Code/FPGADesign/Convolution/test_benches/Convolution_tb.v(63)
#    Time: 180 ns  Iteration: 0  Instance: /Convolution_tb
# Break in Module Convolution_tb at D:/Code/FPGADesign/Convolution/test_benches/Convolution_tb.v line 63
# Compile of PE.v was successful.
# Compile of Convolution.v was successful.
# Compile of Convolution_tb.v was successful.
# 3 compiles, 0 failed with no errors.
vsim -gui work.Convolution_tb
# End time: 09:03:04 on Dec 03,2024, Elapsed time: 0:05:11
# Errors: 0, Warnings: 2
# vsim -gui work.Convolution_tb 
# Start time: 09:03:04 on Dec 03,2024
# Loading work.Convolution_tb
# Loading work.Convolution
# Loading work.PE
add wave *
run
# Time: 0 | x1: 00, x2: 00, x3: 00 | y1: xx, y2: xx, y3: xx
# Time: 5000 | x1: 00, x2: 00, x3: 00 | y1: 00, y2: 00, y3: 00
# Time: 10000 | x1: 0a, x2: 14, x3: 1e | y1: 00, y2: 00, y3: 00
# Time: 55000 | x1: 0a, x2: 14, x3: 1e | y1: 6e, y2: 00, y3: 00
# ** Note: $stop    : D:/Code/FPGADesign/Convolution/test_benches/Convolution_tb.v(51)
#    Time: 60 ns  Iteration: 0  Instance: /Convolution_tb
# Break in Module Convolution_tb at D:/Code/FPGADesign/Convolution/test_benches/Convolution_tb.v line 51
run
# Time: 65000 | x1: 0a, x2: 14, x3: 1e | y1: 6e, y2: 50, y3: 00
# Compile of PE.v was successful.
# Compile of Convolution.v was successful.
# Compile of Convolution_tb.v was successful.
# 3 compiles, 0 failed with no errors.
vsim -gui work.Convolution_tb
# End time: 09:04:02 on Dec 03,2024, Elapsed time: 0:00:58
# Errors: 0, Warnings: 2
# vsim -gui work.Convolution_tb 
# Start time: 09:04:02 on Dec 03,2024
# Loading work.Convolution_tb
# Loading work.Convolution
# Loading work.PE
add wave *
run
# Time: 0 | x1: 00, x2: 00, x3: 00 | y1: xx, y2: xx, y3: xx
# Time: 5000 | x1: 00, x2: 00, x3: 00 | y1: 00, y2: 00, y3: 00
# Time: 10000 | x1: 0a, x2: 14, x3: 1e | y1: 00, y2: 00, y3: 00
# Time: 55000 | x1: 0a, x2: 14, x3: 1e | y1: 6e, y2: 00, y3: 00
# Time: 65000 | x1: 0a, x2: 14, x3: 1e | y1: 6e, y2: 50, y3: 00
# ** Note: $stop    : D:/Code/FPGADesign/Convolution/test_benches/Convolution_tb.v(51)
#    Time: 110 ns  Iteration: 0  Instance: /Convolution_tb
# Break in Module Convolution_tb at D:/Code/FPGADesign/Convolution/test_benches/Convolution_tb.v line 51
# Compile of PE.v was successful.
# Compile of Convolution.v was successful.
# Compile of Convolution_tb.v was successful.
# 3 compiles, 0 failed with no errors.
add wave *
vsim -gui work.Convolution_tb
# End time: 09:04:33 on Dec 03,2024, Elapsed time: 0:00:31
# Errors: 0, Warnings: 2
# vsim -gui work.Convolution_tb 
# Start time: 09:04:33 on Dec 03,2024
# Loading work.Convolution_tb
# Loading work.Convolution
# Loading work.PE
add wave *
run
# Time: 0 | x1: 00, x2: 00, x3: 00 | y1: xx, y2: xx, y3: xx
# Time: 5000 | x1: 00, x2: 00, x3: 00 | y1: 00, y2: 00, y3: 00
# Time: 10000 | x1: 0a, x2: 14, x3: 1e | y1: 00, y2: 00, y3: 00
# Time: 55000 | x1: 0a, x2: 14, x3: 1e | y1: 6e, y2: 00, y3: 00
# Time: 65000 | x1: 0a, x2: 14, x3: 1e | y1: 6e, y2: 50, y3: 00
# Time: 75000 | x1: 0a, x2: 14, x3: 1e | y1: 6e, y2: 50, y3: 1e
# ** Note: $stop    : D:/Code/FPGADesign/Convolution/test_benches/Convolution_tb.v(51)
#    Time: 110 ns  Iteration: 0  Instance: /Convolution_tb
# Break in Module Convolution_tb at D:/Code/FPGADesign/Convolution/test_benches/Convolution_tb.v line 51
# End time: 09:04:51 on Dec 03,2024, Elapsed time: 0:00:18
# Errors: 0, Warnings: 1
